module gitlab.com/go_aws

go 1.19

require (
	github.com/aws/aws-sdk-go-v2 v1.18.0
	github.com/aws/aws-sdk-go-v2/config v1.18.25
	github.com/aws/aws-sdk-go-v2/service/s3 v1.33.1
)

require (
	github.com/aws/aws-sdk-go-v2/aws/protocol/eventstream v1.4.10 // indirect
	github.com/aws/aws-sdk-go-v2/credentials v1.13.24 // indirect
	github.com/aws/aws-sdk-go-v2/feature/ec2/imds v1.13.3 // indirect
	github.com/aws/aws-sdk-go-v2/internal/configsources v1.1.33 // indirect
	github.com/aws/aws-sdk-go-v2/internal/endpoints/v2 v2.4.27 // indirect
	github.com/aws/aws-sdk-go-v2/internal/ini v1.3.34 // indirect
	github.com/aws/aws-sdk-go-v2/internal/v4a v1.0.25 // indirect
	github.com/aws/aws-sdk-go-v2/service/internal/accept-encoding v1.9.11 // indirect
	github.com/aws/aws-sdk-go-v2/service/internal/checksum v1.1.28 // indirect
	github.com/aws/aws-sdk-go-v2/service/internal/presigned-url v1.9.27 // indirect
	github.com/aws/aws-sdk-go-v2/service/internal/s3shared v1.14.2 // indirect
	github.com/aws/aws-sdk-go-v2/service/sso v1.12.10 // indirect
	github.com/aws/aws-sdk-go-v2/service/ssooidc v1.14.10 // indirect
	github.com/aws/aws-sdk-go-v2/service/sts v1.19.0 // indirect
	github.com/aws/smithy-go v1.13.5 // indirect
)
